Invenio RV/simulation/qsim/ProcessorRV.msim.vcd
$comment
	File created using the following command:
		vcd file ProcessorRV.msim.vcd -direction
$end
$date
	Fri May 22 23:33:15 2020
$end
$version
	ModelSim Version 10.4b
$end
$timescale
	1ps
$end

$scope module FullPartialProduct_vlg_vec_tst $end
$var reg 32 ! Multiplicand [31:0] $end
$var reg 1 " S $end
$var reg 1 # Select_2M $end
$var reg 1 $ Select_M $end
$var wire 1 % PartialProduct32Bits [32] $end
$var wire 1 & PartialProduct32Bits [31] $end
$var wire 1 ' PartialProduct32Bits [30] $end
$var wire 1 ( PartialProduct32Bits [29] $end
$var wire 1 ) PartialProduct32Bits [28] $end
$var wire 1 * PartialProduct32Bits [27] $end
$var wire 1 + PartialProduct32Bits [26] $end
$var wire 1 , PartialProduct32Bits [25] $end
$var wire 1 - PartialProduct32Bits [24] $end
$var wire 1 . PartialProduct32Bits [23] $end
$var wire 1 / PartialProduct32Bits [22] $end
$var wire 1 0 PartialProduct32Bits [21] $end
$var wire 1 1 PartialProduct32Bits [20] $end
$var wire 1 2 PartialProduct32Bits [19] $end
$var wire 1 3 PartialProduct32Bits [18] $end
$var wire 1 4 PartialProduct32Bits [17] $end
$var wire 1 5 PartialProduct32Bits [16] $end
$var wire 1 6 PartialProduct32Bits [15] $end
$var wire 1 7 PartialProduct32Bits [14] $end
$var wire 1 8 PartialProduct32Bits [13] $end
$var wire 1 9 PartialProduct32Bits [12] $end
$var wire 1 : PartialProduct32Bits [11] $end
$var wire 1 ; PartialProduct32Bits [10] $end
$var wire 1 < PartialProduct32Bits [9] $end
$var wire 1 = PartialProduct32Bits [8] $end
$var wire 1 > PartialProduct32Bits [7] $end
$var wire 1 ? PartialProduct32Bits [6] $end
$var wire 1 @ PartialProduct32Bits [5] $end
$var wire 1 A PartialProduct32Bits [4] $end
$var wire 1 B PartialProduct32Bits [3] $end
$var wire 1 C PartialProduct32Bits [2] $end
$var wire 1 D PartialProduct32Bits [1] $end
$var wire 1 E PartialProduct32Bits [0] $end

$scope module i1 $end
$var wire 1 F gnd $end
$var wire 1 G vcc $end
$var wire 1 H unknown $end
$var tri1 1 I devclrn $end
$var tri1 1 J devpor $end
$var tri1 1 K devoe $end
$var wire 1 L PartialProduct32Bits[0]~output_o $end
$var wire 1 M PartialProduct32Bits[1]~output_o $end
$var wire 1 N PartialProduct32Bits[2]~output_o $end
$var wire 1 O PartialProduct32Bits[3]~output_o $end
$var wire 1 P PartialProduct32Bits[4]~output_o $end
$var wire 1 Q PartialProduct32Bits[5]~output_o $end
$var wire 1 R PartialProduct32Bits[6]~output_o $end
$var wire 1 S PartialProduct32Bits[7]~output_o $end
$var wire 1 T PartialProduct32Bits[8]~output_o $end
$var wire 1 U PartialProduct32Bits[9]~output_o $end
$var wire 1 V PartialProduct32Bits[10]~output_o $end
$var wire 1 W PartialProduct32Bits[11]~output_o $end
$var wire 1 X PartialProduct32Bits[12]~output_o $end
$var wire 1 Y PartialProduct32Bits[13]~output_o $end
$var wire 1 Z PartialProduct32Bits[14]~output_o $end
$var wire 1 [ PartialProduct32Bits[15]~output_o $end
$var wire 1 \ PartialProduct32Bits[16]~output_o $end
$var wire 1 ] PartialProduct32Bits[17]~output_o $end
$var wire 1 ^ PartialProduct32Bits[18]~output_o $end
$var wire 1 _ PartialProduct32Bits[19]~output_o $end
$var wire 1 ` PartialProduct32Bits[20]~output_o $end
$var wire 1 a PartialProduct32Bits[21]~output_o $end
$var wire 1 b PartialProduct32Bits[22]~output_o $end
$var wire 1 c PartialProduct32Bits[23]~output_o $end
$var wire 1 d PartialProduct32Bits[24]~output_o $end
$var wire 1 e PartialProduct32Bits[25]~output_o $end
$var wire 1 f PartialProduct32Bits[26]~output_o $end
$var wire 1 g PartialProduct32Bits[27]~output_o $end
$var wire 1 h PartialProduct32Bits[28]~output_o $end
$var wire 1 i PartialProduct32Bits[29]~output_o $end
$var wire 1 j PartialProduct32Bits[30]~output_o $end
$var wire 1 k PartialProduct32Bits[31]~output_o $end
$var wire 1 l PartialProduct32Bits[32]~output_o $end
$var wire 1 m Multiplicand[0]~input_o $end
$var wire 1 n Select_M~input_o $end
$var wire 1 o S~input_o $end
$var wire 1 p BPP0|PartialProduct~combout $end
$var wire 1 q Select_2M~input_o $end
$var wire 1 r Multiplicand[1]~input_o $end
$var wire 1 s BPP1|PartialProduct~0_combout $end
$var wire 1 t BPP1|PartialProduct~combout $end
$var wire 1 u Multiplicand[2]~input_o $end
$var wire 1 v BPP2|PartialProduct~0_combout $end
$var wire 1 w BPP2|PartialProduct~combout $end
$var wire 1 x Multiplicand[3]~input_o $end
$var wire 1 y BPP3|PartialProduct~0_combout $end
$var wire 1 z BPP3|PartialProduct~combout $end
$var wire 1 { Multiplicand[4]~input_o $end
$var wire 1 | BPP4|PartialProduct~0_combout $end
$var wire 1 } BPP4|PartialProduct~combout $end
$var wire 1 ~ Multiplicand[5]~input_o $end
$var wire 1 !! BPP5|PartialProduct~0_combout $end
$var wire 1 "! BPP5|PartialProduct~combout $end
$var wire 1 #! Multiplicand[6]~input_o $end
$var wire 1 $! BPP6|PartialProduct~0_combout $end
$var wire 1 %! BPP6|PartialProduct~combout $end
$var wire 1 &! Multiplicand[7]~input_o $end
$var wire 1 '! BPP7|PartialProduct~0_combout $end
$var wire 1 (! BPP7|PartialProduct~combout $end
$var wire 1 )! Multiplicand[8]~input_o $end
$var wire 1 *! BPP8|PartialProduct~0_combout $end
$var wire 1 +! BPP8|PartialProduct~combout $end
$var wire 1 ,! Multiplicand[9]~input_o $end
$var wire 1 -! BPP9|PartialProduct~0_combout $end
$var wire 1 .! BPP9|PartialProduct~combout $end
$var wire 1 /! Multiplicand[10]~input_o $end
$var wire 1 0! BPP10|PartialProduct~0_combout $end
$var wire 1 1! BPP10|PartialProduct~combout $end
$var wire 1 2! Multiplicand[11]~input_o $end
$var wire 1 3! BPP11|PartialProduct~0_combout $end
$var wire 1 4! BPP11|PartialProduct~combout $end
$var wire 1 5! Multiplicand[12]~input_o $end
$var wire 1 6! BPP12|PartialProduct~0_combout $end
$var wire 1 7! BPP12|PartialProduct~combout $end
$var wire 1 8! Multiplicand[13]~input_o $end
$var wire 1 9! BPP13|PartialProduct~0_combout $end
$var wire 1 :! BPP13|PartialProduct~combout $end
$var wire 1 ;! Multiplicand[14]~input_o $end
$var wire 1 <! BPP14|PartialProduct~0_combout $end
$var wire 1 =! BPP14|PartialProduct~combout $end
$var wire 1 >! Multiplicand[15]~input_o $end
$var wire 1 ?! BPP15|PartialProduct~0_combout $end
$var wire 1 @! BPP15|PartialProduct~combout $end
$var wire 1 A! Multiplicand[16]~input_o $end
$var wire 1 B! BPP16|PartialProduct~0_combout $end
$var wire 1 C! BPP16|PartialProduct~combout $end
$var wire 1 D! Multiplicand[17]~input_o $end
$var wire 1 E! BPP17|PartialProduct~0_combout $end
$var wire 1 F! BPP17|PartialProduct~combout $end
$var wire 1 G! Multiplicand[18]~input_o $end
$var wire 1 H! BPP18|PartialProduct~0_combout $end
$var wire 1 I! BPP18|PartialProduct~combout $end
$var wire 1 J! Multiplicand[19]~input_o $end
$var wire 1 K! BPP19|PartialProduct~0_combout $end
$var wire 1 L! BPP19|PartialProduct~combout $end
$var wire 1 M! Multiplicand[20]~input_o $end
$var wire 1 N! BPP20|PartialProduct~0_combout $end
$var wire 1 O! BPP20|PartialProduct~combout $end
$var wire 1 P! Multiplicand[21]~input_o $end
$var wire 1 Q! BPP21|PartialProduct~0_combout $end
$var wire 1 R! BPP21|PartialProduct~combout $end
$var wire 1 S! Multiplicand[22]~input_o $end
$var wire 1 T! BPP22|PartialProduct~0_combout $end
$var wire 1 U! BPP22|PartialProduct~combout $end
$var wire 1 V! Multiplicand[23]~input_o $end
$var wire 1 W! BPP23|PartialProduct~0_combout $end
$var wire 1 X! BPP23|PartialProduct~combout $end
$var wire 1 Y! Multiplicand[24]~input_o $end
$var wire 1 Z! BPP24|PartialProduct~0_combout $end
$var wire 1 [! BPP24|PartialProduct~combout $end
$var wire 1 \! Multiplicand[25]~input_o $end
$var wire 1 ]! BPP25|PartialProduct~0_combout $end
$var wire 1 ^! BPP25|PartialProduct~combout $end
$var wire 1 _! Multiplicand[26]~input_o $end
$var wire 1 `! BPP26|PartialProduct~0_combout $end
$var wire 1 a! BPP26|PartialProduct~combout $end
$var wire 1 b! Multiplicand[27]~input_o $end
$var wire 1 c! BPP27|PartialProduct~0_combout $end
$var wire 1 d! BPP27|PartialProduct~combout $end
$var wire 1 e! Multiplicand[28]~input_o $end
$var wire 1 f! BPP28|PartialProduct~0_combout $end
$var wire 1 g! BPP28|PartialProduct~combout $end
$var wire 1 h! Multiplicand[29]~input_o $end
$var wire 1 i! BPP29|PartialProduct~0_combout $end
$var wire 1 j! BPP29|PartialProduct~combout $end
$var wire 1 k! Multiplicand[30]~input_o $end
$var wire 1 l! BPP30|PartialProduct~0_combout $end
$var wire 1 m! BPP30|PartialProduct~combout $end
$var wire 1 n! Multiplicand[31]~input_o $end
$var wire 1 o! BPP31|PartialProduct~0_combout $end
$var wire 1 p! BPP31|PartialProduct~combout $end
$var wire 1 q! BPP32|PartialProduct~combout $end
$upscope $end
$upscope $end
$enddefinitions $end
#0
$dumpvars
b1001110010110111 !
0"
0#
0$
xE
xD
xC
xB
xA
x@
x?
x>
x=
x<
x;
x:
x9
x8
x7
x6
x5
x4
x3
x2
x1
x0
x/
x.
x-
x,
x+
x*
x)
x(
x'
x&
x%
0F
1G
xH
1I
1J
1K
xL
xM
xN
xO
xP
xQ
xR
xS
xT
xU
xV
xW
xX
xY
xZ
x[
x\
x]
x^
x_
x`
xa
xb
xc
xd
xe
xf
xg
xh
xi
xj
xk
xl
1m
0n
0o
xp
0q
1r
xs
xt
1u
xv
xw
0x
xy
xz
1{
x|
x}
1~
x!!
x"!
0#!
x$!
x%!
1&!
x'!
x(!
0)!
x*!
x+!
0,!
x-!
x.!
1/!
x0!
x1!
12!
x3!
x4!
15!
x6!
x7!
08!
x9!
x:!
0;!
x<!
x=!
1>!
x?!
x@!
0A!
xB!
xC!
0D!
xE!
xF!
0G!
xH!
xI!
0J!
xK!
xL!
0M!
xN!
xO!
0P!
xQ!
xR!
0S!
xT!
xU!
0V!
xW!
xX!
0Y!
xZ!
x[!
0\!
x]!
x^!
0_!
x`!
xa!
0b!
xc!
xd!
0e!
xf!
xg!
0h!
xi!
xj!
0k!
xl!
xm!
0n!
xo!
xp!
xq!
$end
#3314
0K!
0f!
#3321
0E!
#3347
0i!
#3440
0H!
#3473
0<!
#3595
0c!
0]!
0`!
#3602
0N!
#3610
0q!
#3616
0Q!
#3634
0L!
#3640
0F!
#3646
0T!
#3670
0j!
#3703
0W!
#3757
0Z!
#3811
0l!
#3812
0o!
#3818
0-!
#3883
00!
#3897
09!
#3915
0a!
#3918
0d!
#3923
0=!
#3930
0g!
#3968
0U!
#3993
0?!
#3997
03!
#4015
0*!
#4019
0y
0$!
#4026
0X!
#4054
06!
#4056
0I!
#4076
0[!
#4085
0B!
#4134
0p!
#4138
0v
#4141
0.!
#4145
0!!
#4146
0'!
0p
#4203
01!
#4222
0O!
#4234
0R!
#4253
0s
#4291
0|
#4315
0@!
#4321
04!
#4348
0:!
#4426
0m!
#4466
0z
#4469
0%!
#4503
07!
#4585
0w
#4628
0+!
#4740
0}
#4758
0"!
#4854
0^!
#4864
0t
#5698
0C!
#6309
0(!
#6598
0l
0%
#6725
0i
0(
#7050
0]
04
#7224
0_
02
#7264
0h
0)
#7326
0b
0/
#7331
0c
0.
#7466
0d
0-
#7469
0`
01
#7483
0U
0<
#7486
0[
06
#7562
0a
00
#7573
0f
0+
#7582
0L
0E
#7666
0O
0B
#7772
0N
0C
#7776
0k
0&
#7859
0M
0D
#7878
0Y
08
#7896
0R
0?
#7908
0T
0=
#7949
0W
0:
#8021
0X
09
#8167
0j
0'
#8168
0P
0A
#8194
0e
0,
#8250
0Q
0@
#8284
0V
0;
#8439
0Z
07
#8521
0g
0*
#8634
0^
03
#9061
0\
05
#12723
0S
0>
#80000
1$
#80514
1n
#84056
10!
#84149
1?!
#84153
13!
#84183
16!
#84310
1v
#84319
1s
#84326
1p
1!!
1'!
#84360
11!
#84455
1@!
#84458
1|
#84460
14!
#84600
17!
#84727
1w
#84875
1}
#84876
1t
#84883
1"!
#86457
1(!
#87629
1[
16
#87809
1L
1E
#87917
1M
1D
#87975
1N
1C
#88097
1W
1:
#88137
1X
19
#88348
1P
1A
#88398
1V
1;
#88403
1Q
1@
#92711
1S
1>
#160000
1#
0$
#160514
1q
#160679
0n
#164085
19!
#164207
1*!
#164212
1y
1$!
#164260
1B!
#164503
1:!
#164562
00!
#164628
1z
#164631
1%!
#164672
0?!
#164764
1+!
#164825
0'!
0p
#164882
01!
#164970
0|
#164994
0@!
#165419
0}
#165896
1C!
#166988
0(!
#167885
1O
1B
#168060
1Y
18
#168089
1T
1=
#168105
1R
1?
#168165
0[
06
#168261
0L
0E
#168847
0P
0A
#168963
0V
0;
#169281
1\
15
#173402
0S
0>
#240000
1"
0#
1$
#240514
1n
1o
#240679
0q
#241777
0w
#241778
0z
#241780
0%!
0+!
#241781
0"!
#241784
0t
#241791
1}
#241793
1p
#241807
1(!
#242072
11!
#242078
1@!
#242080
1=!
#242081
1.!
#242086
0:!
#242089
07!
#242092
0C!
#242093
04!
#242411
1[!
1g!
#242412
1d!
#242416
1a!
1j!
1m!
1p!
#242565
1q!
#242785
1L!
1U!
#242789
1I!
#242790
1F!
#242791
1R!
1X!
1^!
#242792
1O!
#244056
10!
#244149
1?!
#244324
0p
#244326
1'!
#244350
01!
#244445
0@!
#244458
1|
#244576
09!
#244694
0*!
#244698
0y
0$!
#244764
0B!
#244779
0M
0D
#244873
0}
#244964
0N
0C
#244978
0O
0B
#245028
1:!
#245060
0T
0=
#245147
1z
#245150
1%!
#245207
0R
0?
#245264
1P
1A
#245273
0Q
0@
#245294
1+!
#245455
0\
05
#245461
1U
1<
#245508
1i
1(
#245583
1l
1%
#245607
0X
09
#245616
0Y
08
#245721
0W
0:
#245786
1h
1)
#245811
1d
1-
#246053
1`
11
#246087
1k
1&
#246104
1f
1+
#246132
1j
1'
#246139
1c
1.
#246141
1a
10
#246178
1e
1,
#246189
1b
1/
#246223
1]
14
#246387
1C!
#246398
1_
12
#246470
0(!
#246525
1Z
17
#246959
1g
1*
#247306
1^
13
#248061
1S
1>
#248301
0P
0A
#248404
1O
1B
#248585
1Y
18
#248619
1T
1=
#248624
1R
1?
#249772
1\
15
#252884
0S
0>
#320000
1#
0$
#320514
1q
#320679
0n
#324085
19!
#324207
1*!
#324212
1y
1$!
#324260
1B!
#324502
0:!
#324562
00!
#324626
0z
#324629
0%!
#324672
0?!
#324777
0+!
#324825
0'!
#324827
1p
#324892
11!
#324970
0|
#325004
1@!
#325421
1}
#325886
0C!
#326975
1(!
#327826
0O
0B
#328032
0Y
08
#328056
0R
0?
#328057
0T
0=
#328178
1[
16
#328310
1L
1E
#328894
1P
1A
#328930
1V
1;
#329249
0\
05
#333229
1S
1>
#400000
0#
#400679
0q
#404568
03!
#404572
06!
#404576
09!
#404691
0v
#404694
0!!
0*!
#404698
0y
0$!
#404764
0B!
#404902
14!
#404932
0s
#405022
17!
#405028
1:!
#405140
1w
#405147
1z
#405150
1%!
#405294
1+!
1"!
#405529
1t
#406387
1C!
#408388
1N
1C
#408404
1O
1B
#408539
1W
1:
#408559
1X
19
#408570
1M
1D
#408585
1Y
18
#408619
1T
1=
#408624
1R
1?
#408814
1Q
1@
#409772
1\
15
#480000
0"
#480679
0o
#481908
0(!
#481941
0t
#481942
0w
0z
0}
#481944
0p
0"!
0%!
0+!
#482178
01!
#482179
07!
0:!
#482180
0@!
#482181
0=!
0.!
#482185
0C!
#482187
04!
#482469
0m!
0j!
0p!
#482471
0g!
0[!
#482472
0d!
#482473
0a!
#482639
0q!
#482798
0U!
#482799
0L!
#482802
0X!
#482803
0^!
#482804
0R!
#482805
0I!
0F!
#482808
0O!
#484936
0M
0D
#485129
0N
0C
#485142
0O
0B
#485224
0T
0=
#485351
0[
06
#485370
0P
0A
#485371
0R
0?
#485380
0L
0E
#485436
0Q
0@
#485523
0U
0<
#485524
0i
0(
#485548
0\
05
#485627
0l
0%
#485697
0X
09
#485709
0Y
08
#485805
0h
0)
#485815
0W
0:
#485861
0d
0-
#486055
0`
01
#486107
0c
0.
#486111
0k
0&
#486131
0f
0+
#486132
0a
00
#486143
0e
0,
#486156
0b
0/
#486210
0j
0'
#486215
0]
04
#486259
0V
0;
#486389
0_
02
#486697
0Z
07
#487075
0g
0*
#487383
0^
03
#488322
0S
0>
