Invenio RV/simulation/qsim/ProcessorRV.msim.vcd
$comment
	File created using the following command:
		vcd file ProcessorRV.msim.vcd -direction
$end
$date
	Wed May 27 14:31:45 2020
$end
$version
	ModelSim Version 10.4b
$end
$timescale
	1ps
$end

$scope module ArithmeticShiftRight_vlg_vec_tst $end
$var reg 32 ! DataIn [31:0] $end
$var reg 1 " Enable $end
$var reg 1 # Reloj $end
$var reg 1 $ Replace $end
$var reg 1 % Reset $end
$var wire 1 & ArithmeticShiftRightRegister [31] $end
$var wire 1 ' ArithmeticShiftRightRegister [30] $end
$var wire 1 ( ArithmeticShiftRightRegister [29] $end
$var wire 1 ) ArithmeticShiftRightRegister [28] $end
$var wire 1 * ArithmeticShiftRightRegister [27] $end
$var wire 1 + ArithmeticShiftRightRegister [26] $end
$var wire 1 , ArithmeticShiftRightRegister [25] $end
$var wire 1 - ArithmeticShiftRightRegister [24] $end
$var wire 1 . ArithmeticShiftRightRegister [23] $end
$var wire 1 / ArithmeticShiftRightRegister [22] $end
$var wire 1 0 ArithmeticShiftRightRegister [21] $end
$var wire 1 1 ArithmeticShiftRightRegister [20] $end
$var wire 1 2 ArithmeticShiftRightRegister [19] $end
$var wire 1 3 ArithmeticShiftRightRegister [18] $end
$var wire 1 4 ArithmeticShiftRightRegister [17] $end
$var wire 1 5 ArithmeticShiftRightRegister [16] $end
$var wire 1 6 ArithmeticShiftRightRegister [15] $end
$var wire 1 7 ArithmeticShiftRightRegister [14] $end
$var wire 1 8 ArithmeticShiftRightRegister [13] $end
$var wire 1 9 ArithmeticShiftRightRegister [12] $end
$var wire 1 : ArithmeticShiftRightRegister [11] $end
$var wire 1 ; ArithmeticShiftRightRegister [10] $end
$var wire 1 < ArithmeticShiftRightRegister [9] $end
$var wire 1 = ArithmeticShiftRightRegister [8] $end
$var wire 1 > ArithmeticShiftRightRegister [7] $end
$var wire 1 ? ArithmeticShiftRightRegister [6] $end
$var wire 1 @ ArithmeticShiftRightRegister [5] $end
$var wire 1 A ArithmeticShiftRightRegister [4] $end
$var wire 1 B ArithmeticShiftRightRegister [3] $end
$var wire 1 C ArithmeticShiftRightRegister [2] $end
$var wire 1 D ArithmeticShiftRightRegister [1] $end
$var wire 1 E ArithmeticShiftRightRegister [0] $end

$scope module i1 $end
$var wire 1 F gnd $end
$var wire 1 G vcc $end
$var wire 1 H unknown $end
$var tri1 1 I devclrn $end
$var tri1 1 J devpor $end
$var tri1 1 K devoe $end
$var wire 1 L ArithmeticShiftRightRegister[0]~output_o $end
$var wire 1 M ArithmeticShiftRightRegister[1]~output_o $end
$var wire 1 N ArithmeticShiftRightRegister[2]~output_o $end
$var wire 1 O ArithmeticShiftRightRegister[3]~output_o $end
$var wire 1 P ArithmeticShiftRightRegister[4]~output_o $end
$var wire 1 Q ArithmeticShiftRightRegister[5]~output_o $end
$var wire 1 R ArithmeticShiftRightRegister[6]~output_o $end
$var wire 1 S ArithmeticShiftRightRegister[7]~output_o $end
$var wire 1 T ArithmeticShiftRightRegister[8]~output_o $end
$var wire 1 U ArithmeticShiftRightRegister[9]~output_o $end
$var wire 1 V ArithmeticShiftRightRegister[10]~output_o $end
$var wire 1 W ArithmeticShiftRightRegister[11]~output_o $end
$var wire 1 X ArithmeticShiftRightRegister[12]~output_o $end
$var wire 1 Y ArithmeticShiftRightRegister[13]~output_o $end
$var wire 1 Z ArithmeticShiftRightRegister[14]~output_o $end
$var wire 1 [ ArithmeticShiftRightRegister[15]~output_o $end
$var wire 1 \ ArithmeticShiftRightRegister[16]~output_o $end
$var wire 1 ] ArithmeticShiftRightRegister[17]~output_o $end
$var wire 1 ^ ArithmeticShiftRightRegister[18]~output_o $end
$var wire 1 _ ArithmeticShiftRightRegister[19]~output_o $end
$var wire 1 ` ArithmeticShiftRightRegister[20]~output_o $end
$var wire 1 a ArithmeticShiftRightRegister[21]~output_o $end
$var wire 1 b ArithmeticShiftRightRegister[22]~output_o $end
$var wire 1 c ArithmeticShiftRightRegister[23]~output_o $end
$var wire 1 d ArithmeticShiftRightRegister[24]~output_o $end
$var wire 1 e ArithmeticShiftRightRegister[25]~output_o $end
$var wire 1 f ArithmeticShiftRightRegister[26]~output_o $end
$var wire 1 g ArithmeticShiftRightRegister[27]~output_o $end
$var wire 1 h ArithmeticShiftRightRegister[28]~output_o $end
$var wire 1 i ArithmeticShiftRightRegister[29]~output_o $end
$var wire 1 j ArithmeticShiftRightRegister[30]~output_o $end
$var wire 1 k ArithmeticShiftRightRegister[31]~output_o $end
$var wire 1 l Reloj~input_o $end
$var wire 1 m Reloj~inputclkctrl_outclk $end
$var wire 1 n DataIn[0]~input_o $end
$var wire 1 o Replace~input_o $end
$var wire 1 p DataIn[1]~input_o $end
$var wire 1 q DataIn[2]~input_o $end
$var wire 1 r DataIn[3]~input_o $end
$var wire 1 s DataIn[4]~input_o $end
$var wire 1 t DataIn[5]~input_o $end
$var wire 1 u DataIn[6]~input_o $end
$var wire 1 v DataIn[7]~input_o $end
$var wire 1 w DataIn[9]~input_o $end
$var wire 1 x DataIn[10]~input_o $end
$var wire 1 y DataIn[11]~input_o $end
$var wire 1 z DataIn[13]~input_o $end
$var wire 1 { DataIn[17]~input_o $end
$var wire 1 | DataIn[18]~input_o $end
$var wire 1 } DataIn[19]~input_o $end
$var wire 1 ~ DataIn[20]~input_o $end
$var wire 1 !! DataIn[21]~input_o $end
$var wire 1 "! DataIn[23]~input_o $end
$var wire 1 #! DataIn[24]~input_o $end
$var wire 1 $! DataIn[25]~input_o $end
$var wire 1 %! DataIn[26]~input_o $end
$var wire 1 &! DataIn[27]~input_o $end
$var wire 1 '! DataIn[29]~input_o $end
$var wire 1 (! DataIn[31]~input_o $end
$var wire 1 )! Reset~input_o $end
$var wire 1 *! Reset~inputclkctrl_outclk $end
$var wire 1 +! Enable~input_o $end
$var wire 1 ,! D31~0_combout $end
$var wire 1 -! D31~q $end
$var wire 1 .! DataIn[30]~input_o $end
$var wire 1 /! D[30]~30_combout $end
$var wire 1 0! D30~q $end
$var wire 1 1! D[29]~29_combout $end
$var wire 1 2! D29~q $end
$var wire 1 3! DataIn[28]~input_o $end
$var wire 1 4! D[28]~28_combout $end
$var wire 1 5! D28~q $end
$var wire 1 6! D[27]~27_combout $end
$var wire 1 7! D27~q $end
$var wire 1 8! D[26]~26_combout $end
$var wire 1 9! D26~q $end
$var wire 1 :! D[25]~25_combout $end
$var wire 1 ;! D25~q $end
$var wire 1 <! D[24]~24_combout $end
$var wire 1 =! D24~q $end
$var wire 1 >! D[23]~23_combout $end
$var wire 1 ?! D23~q $end
$var wire 1 @! DataIn[22]~input_o $end
$var wire 1 A! D[22]~22_combout $end
$var wire 1 B! D22~q $end
$var wire 1 C! D[21]~21_combout $end
$var wire 1 D! D21~q $end
$var wire 1 E! D[20]~20_combout $end
$var wire 1 F! D20~q $end
$var wire 1 G! D[19]~19_combout $end
$var wire 1 H! D19~q $end
$var wire 1 I! D[18]~18_combout $end
$var wire 1 J! D18~q $end
$var wire 1 K! D[17]~17_combout $end
$var wire 1 L! D17~q $end
$var wire 1 M! DataIn[16]~input_o $end
$var wire 1 N! D[16]~16_combout $end
$var wire 1 O! D16~q $end
$var wire 1 P! DataIn[15]~input_o $end
$var wire 1 Q! D[15]~15_combout $end
$var wire 1 R! D15~q $end
$var wire 1 S! DataIn[14]~input_o $end
$var wire 1 T! D[14]~14_combout $end
$var wire 1 U! D14~q $end
$var wire 1 V! D[13]~13_combout $end
$var wire 1 W! D13~q $end
$var wire 1 X! DataIn[12]~input_o $end
$var wire 1 Y! D[12]~12_combout $end
$var wire 1 Z! D12~q $end
$var wire 1 [! D[11]~11_combout $end
$var wire 1 \! D11~q $end
$var wire 1 ]! D[10]~10_combout $end
$var wire 1 ^! D10~q $end
$var wire 1 _! D[9]~9_combout $end
$var wire 1 `! D9~q $end
$var wire 1 a! DataIn[8]~input_o $end
$var wire 1 b! D[8]~8_combout $end
$var wire 1 c! D8~q $end
$var wire 1 d! D[7]~7_combout $end
$var wire 1 e! D7~q $end
$var wire 1 f! D[6]~6_combout $end
$var wire 1 g! D6~q $end
$var wire 1 h! D[5]~5_combout $end
$var wire 1 i! D5~q $end
$var wire 1 j! D[4]~4_combout $end
$var wire 1 k! D4~q $end
$var wire 1 l! D[3]~3_combout $end
$var wire 1 m! D3~q $end
$var wire 1 n! D[2]~2_combout $end
$var wire 1 o! D2~q $end
$var wire 1 p! D[1]~1_combout $end
$var wire 1 q! D1~q $end
$var wire 1 r! D[0]~0_combout $end
$var wire 1 s! D0~q $end
$upscope $end
$upscope $end
$enddefinitions $end
#0
$dumpvars
b0 !
0"
0#
0$
0%
xE
xD
xC
xB
xA
x@
x?
x>
x=
x<
x;
x:
x9
x8
x7
x6
x5
x4
x3
x2
x1
x0
x/
x.
x-
x,
x+
x*
x)
x(
x'
x&
0F
1G
xH
1I
1J
1K
xL
xM
xN
xO
xP
xQ
xR
xS
xT
xU
xV
xW
xX
xY
xZ
x[
x\
x]
x^
x_
x`
xa
xb
xc
xd
xe
xf
xg
xh
xi
xj
xk
0l
xm
0n
0o
0p
0q
0r
0s
0t
0u
0v
0w
0x
0y
0z
0{
0|
0}
0~
0!!
0"!
0#!
0$!
0%!
0&!
0'!
0(!
0)!
x*!
0+!
x,!
0-!
0.!
x/!
00!
x1!
02!
03!
x4!
05!
x6!
07!
x8!
09!
x:!
0;!
x<!
0=!
x>!
0?!
0@!
xA!
0B!
xC!
0D!
xE!
0F!
xG!
0H!
xI!
0J!
xK!
0L!
0M!
xN!
0O!
0P!
xQ!
0R!
0S!
xT!
0U!
xV!
0W!
0X!
xY!
0Z!
x[!
0\!
x]!
0^!
x_!
0`!
0a!
xb!
0c!
xd!
0e!
xf!
0g!
xh!
0i!
xj!
0k!
xl!
0m!
xn!
0o!
xp!
0q!
xr!
0s!
$end
#138
0m
0*!
#1840
0r!
#1878
0d!
#1883
0[!
#1887
0l!
#1889
0f!
#1891
0]!
#1892
01!
0p!
#1893
0n!
#1896
0_!
#1897
0h!
#1987
0C!
#1992
0:!
#1996
0G!
#1998
0<!
#2004
06!
0,!
#2006
0V!
#2007
0E!
#2008
0K!
#2009
0A!
08!
0>!
#2010
0N!
#2015
0Y!
#2022
0Q!
#2024
0T!
#2025
0I!
#2046
0j!
#2053
04!
#2066
0b!
#2068
0/!
#3296
0X
09
#3357
0h
0)
#3498
0g
0*
#3561
0M
0D
#3660
0N
0C
#3692
0Q
0@
#3769
0[
06
#3771
0S
0>
#3786
0V
0;
#3864
0\
05
#3871
0U
0<
#3898
0c
0.
#3932
0T
0=
#3986
0Y
08
#3988
0P
0A
#4042
0e
0,
#4113
0R
0?
#4140
0L
0E
#4189
0a
00
#4204
0Z
07
#4245
0j
0'
#4252
0_
02
#4434
0f
0+
#4460
0]
04
#4614
0i
0(
#4630
0`
01
#4674
0W
0:
#4783
0^
03
#4817
0O
0B
#4870
0k
0&
#5134
0d
0-
#5198
0b
0/
#10000
1#
#10516
1l
#10670
1m
#20000
0#
#20681
0l
#20819
0m
#30000
1%
1#
#30516
1l
1)!
#30670
1*!
1m
#40000
0#
#40681
0l
#40819
0m
#50000
1#
#50516
1l
#50670
1m
#60000
1$
1"
b10000000000000000000000000000000 !
b11000000000000000000000000000000 !
b11000000001000000000000000000000 !
b11000000001100000000000000000000 !
0#
#60514
1(!
1.!
1~
1+!
1o
#60516
1!!
#60681
0l
#60819
0m
#63914
1,!
#63918
1/!
#63998
1C!
#64080
1E!
#70000
1#
#70516
1l
#70670
1m
#72411
1D!
1F!
#72412
1-!
10!
#76510
1a
10
#76583
1j
1'
#76994
1`
11
#77199
1k
1&
#80000
0#
#80681
0l
#80819
0m
#90000
0"
1#
#90516
1l
#90670
1m
#90679
0+!
#94365
0,!
#100000
0$
0#
#100679
0o
#100681
0l
#100819
0m
#102573
11!
#102666
0C!
#102669
1G!
#110000
1#
#110516
1l
#110670
1m
#120000
0#
#120681
0l
#120819
0m
#130000
1#
#130516
1l
#130670
1m
#140000
1"
0#
#140514
1+!
#140681
0l
#140819
0m
#150000
1#
#150516
1l
#150670
1m
#152411
0D!
1H!
#152412
12!
#152781
1I!
#152842
0E!
#152892
14!
#156600
0a
00
#156624
1_
12
#156862
1i
1(
#160000
0#
#160681
0l
#160819
0m
#170000
1#
#170516
1l
#170670
1m
#172411
0F!
1J!
#172412
15!
#172779
1K!
#172841
0G!
#172950
16!
#175777
1h
1)
#177041
0`
01
#177069
1^
13
#180000
0#
#180681
0l
#180819
0m
#190000
1#
#190516
1l
#190670
1m
#192411
17!
0H!
1L!
#192780
18!
#192841
0I!
#192892
1N!
#195887
1g
1*
#196663
0_
02
#196849
1]
14
#200000
0#
#200681
0l
#200819
0m
#210000
1#
#210516
1l
#210670
1m
#212411
19!
0J!
1O!
#212781
1:!
#212838
0K!
#212892
1Q!
#216279
1\
15
#216819
1f
1+
#217194
0^
03
#220000
0#
#220681
0l
#220819
0m
#230000
1#
#230516
1l
#230670
1m
#232411
1;!
0L!
1R!
#232780
1<!
#232892
1T!
#232969
0N!
#236138
1[
16
#236398
1e
1,
#236871
0]
04
#240000
0#
#240681
0l
#240819
0m
#250000
1#
#250516
1l
#250670
1m
#252411
1=!
0O!
1U!
#252780
1V!
#252781
1>!
#252969
0Q!
#256275
0\
05
#256601
1Z
17
#257457
1d
1-
#260000
0#
#260681
0l
#260819
0m
#270000
1#
#270516
1l
#270670
1m
#272411
1?!
0R!
1W!
#272893
1Y!
#272895
1A!
#272969
0T!
#276180
0[
06
#276308
1c
1.
#276372
1Y
18
#280000
0#
#280681
0l
#280819
0m
#290000
b1000000001100000000000000000000 !
b1100000000000000000000 !
b100000000000000000000 !
b0 !
1#
#290516
1l
#290670
1m
#290679
0(!
0.!
0~
#290681
0!!
#292411
1B!
0U!
1Z!
#292778
1C!
#292838
0V!
#292913
1[!
#295703
1X
19
#296615
0Z
07
#297434
1b
1/
#300000
0#
#300681
0l
#300819
0m
#310000
1#
#310516
1l
#310670
1m
#312411
1D!
0W!
#312412
1\!
#312781
1]!
#312782
1E!
#312968
0Y!
#316397
0Y
08
#316510
1a
10
#317096
1W
1:
#320000
0#
#320681
0l
#320819
0m
#330000
0"
1#
#330516
1l
#330670
1m
#330679
0+!
#332411
1F!
0Z!
#332412
1^!
#332781
1_!
1G!
#332957
0[!
#335707
0X
09
#336160
1V
1;
#336994
1`
11
#340000
0#
#340681
0l
#340819
0m
#350000
1#
#350516
1l
#350670
1m
#360000
0#
#360681
0l
#360819
0m
#370000
1#
#370516
1l
#370670
1m
#380000
0#
#380681
0l
#380819
0m
#390000
1#
#390516
1l
#390670
1m
#400000
0#
#400681
0l
#400819
0m
#410000
1#
#410516
1l
#410670
1m
#420000
0#
#420681
0l
#420819
0m
#430000
1#
#430516
1l
#430670
1m
#440000
0#
#440681
0l
#440819
0m
#450000
1#
#450516
1l
#450670
1m
#460000
0#
#460681
0l
#460819
0m
#470000
1#
#470516
1l
#470670
1m
#480000
0#
#480681
0l
#480819
0m
#490000
1#
#490516
1l
#490670
1m
#500000
0#
#500681
0l
#500819
0m
#510000
1#
#510516
1l
#510670
1m
#520000
0#
#520681
0l
#520819
0m
#530000
1#
#530516
1l
#530670
1m
#540000
0#
#540681
0l
#540819
0m
#550000
1#
#550516
1l
#550670
1m
#560000
0#
#560681
0l
#560819
0m
#570000
1#
#570516
1l
#570670
1m
#580000
0#
#580681
0l
#580819
0m
#590000
1#
#590516
1l
#590670
1m
#600000
0#
#600681
0l
#600819
0m
#610000
1#
#610516
1l
#610670
1m
#620000
0#
#620681
0l
#620819
0m
#630000
1#
#630516
1l
#630670
1m
#640000
0#
#640681
0l
#640819
0m
#650000
1#
#650516
1l
#650670
1m
#660000
0#
#660681
0l
#660819
0m
#670000
1#
#670516
1l
#670670
1m
#680000
0#
#680681
0l
#680819
0m
#690000
1#
#690516
1l
#690670
1m
#700000
0#
#700681
0l
#700819
0m
#710000
1#
#710516
1l
#710670
1m
#720000
0#
#720681
0l
#720819
0m
#730000
1#
#730516
1l
#730670
1m
#740000
0#
#740681
0l
#740819
0m
#750000
1#
#750516
1l
#750670
1m
#760000
0#
#760681
0l
#760819
0m
#770000
1#
#770516
1l
#770670
1m
#780000
0#
#780681
0l
#780819
0m
#790000
1#
#790516
1l
#790670
1m
#800000
0#
#800681
0l
#800819
0m
#810000
1#
#810516
1l
#810670
1m
#820000
0#
#820681
0l
#820819
0m
#830000
1#
#830516
1l
#830670
1m
#840000
0#
#840681
0l
#840819
0m
#850000
1#
#850516
1l
#850670
1m
#860000
0#
#860681
0l
#860819
0m
#870000
1#
#870516
1l
#870670
1m
#880000
0#
#880681
0l
#880819
0m
#890000
1#
#890516
1l
#890670
1m
#900000
0#
#900681
0l
#900819
0m
#910000
1#
#910516
1l
#910670
1m
#920000
0#
#920681
0l
#920819
0m
#930000
1#
#930516
1l
#930670
1m
#940000
0#
#940681
0l
#940819
0m
#950000
1#
#950516
1l
#950670
1m
#960000
0#
#960681
0l
#960819
0m
#970000
1#
#970516
1l
#970670
1m
#980000
0#
#980681
0l
#980819
0m
#990000
1#
#990516
1l
