Invenio RV/simulation/qsim/ProcessorRV.msim.vcd
$comment
	File created using the following command:
		vcd file ProcessorRV.msim.vcd -direction
$end
$date
	Wed Jun 24 12:53:19 2020
$end
$version
	ModelSim Version 10.4b
$end
$timescale
	1ps
$end

$scope module Counter_vlg_vec_tst $end
$var reg 3 ! Control_Counter [2:0] $end
$var reg 6 " IR_Counter [5:0] $end
$var reg 32 # Registers_Counter [31:0] $end
$var reg 1 $ Reloj $end
$var reg 1 % Reset $end
$var wire 1 & Conteo [31] $end
$var wire 1 ' Conteo [30] $end
$var wire 1 ( Conteo [29] $end
$var wire 1 ) Conteo [28] $end
$var wire 1 * Conteo [27] $end
$var wire 1 + Conteo [26] $end
$var wire 1 , Conteo [25] $end
$var wire 1 - Conteo [24] $end
$var wire 1 . Conteo [23] $end
$var wire 1 / Conteo [22] $end
$var wire 1 0 Conteo [21] $end
$var wire 1 1 Conteo [20] $end
$var wire 1 2 Conteo [19] $end
$var wire 1 3 Conteo [18] $end
$var wire 1 4 Conteo [17] $end
$var wire 1 5 Conteo [16] $end
$var wire 1 6 Conteo [15] $end
$var wire 1 7 Conteo [14] $end
$var wire 1 8 Conteo [13] $end
$var wire 1 9 Conteo [12] $end
$var wire 1 : Conteo [11] $end
$var wire 1 ; Conteo [10] $end
$var wire 1 < Conteo [9] $end
$var wire 1 = Conteo [8] $end
$var wire 1 > Conteo [7] $end
$var wire 1 ? Conteo [6] $end
$var wire 1 @ Conteo [5] $end
$var wire 1 A Conteo [4] $end
$var wire 1 B Conteo [3] $end
$var wire 1 C Conteo [2] $end
$var wire 1 D Conteo [1] $end
$var wire 1 E Conteo [0] $end
$var wire 1 F Counter_Control $end

$scope module i1 $end
$var wire 1 G gnd $end
$var wire 1 H vcc $end
$var wire 1 I unknown $end
$var tri1 1 J devclrn $end
$var tri1 1 K devpor $end
$var tri1 1 L devoe $end
$var wire 1 M ~QUARTUS_CREATED_GND~I_combout $end
$var wire 1 N Reloj~input_o $end
$var wire 1 O Reloj~inputCLKENA0_outclk $end
$var wire 1 P IR_Counter[0]~input_o $end
$var wire 1 Q Control_Counter[2]~input_o $end
$var wire 1 R Registers_Counter[0]~input_o $end
$var wire 1 S Control_Counter[1]~input_o $end
$var wire 1 T Control_Counter[0]~input_o $end
$var wire 1 U FF0|Q~0_combout $end
$var wire 1 V Reset~input_o $end
$var wire 1 W FF0|Q~q $end
$var wire 1 X IR_Counter[1]~input_o $end
$var wire 1 Y Registers_Counter[1]~input_o $end
$var wire 1 Z FF1|Q~1_combout $end
$var wire 1 [ FF1|Q~5_combout $end
$var wire 1 \ FF1|Q~q $end
$var wire 1 ] IR_Counter[2]~input_o $end
$var wire 1 ^ Registers_Counter[2]~input_o $end
$var wire 1 _ FF1|Q~0_combout $end
$var wire 1 ` FF2|Q~0_combout $end
$var wire 1 a FF2|Q~q $end
$var wire 1 b Registers_Counter[3]~input_o $end
$var wire 1 c IR_Counter[3]~input_o $end
$var wire 1 d FF3|Q~0_combout $end
$var wire 1 e FF3|Q~q $end
$var wire 1 f IR_Counter[4]~input_o $end
$var wire 1 g Registers_Counter[4]~input_o $end
$var wire 1 h FF4|Q~0_combout $end
$var wire 1 i FF4|Q~q $end
$var wire 1 j IR_Counter[5]~input_o $end
$var wire 1 k Registers_Counter[5]~input_o $end
$var wire 1 l FF5|Q~0_combout $end
$var wire 1 m FF5|Q~q $end
$var wire 1 n Registers_Counter[6]~input_o $end
$var wire 1 o FF6|Q~0_combout $end
$var wire 1 p FF6|Q~q $end
$var wire 1 q Registers_Counter[7]~input_o $end
$var wire 1 r FF7|Q~0_combout $end
$var wire 1 s FF7|Q~q $end
$var wire 1 t Registers_Counter[8]~input_o $end
$var wire 1 u FF8|Q~0_combout $end
$var wire 1 v FF8|Q~q $end
$var wire 1 w Registers_Counter[9]~input_o $end
$var wire 1 x FF9|Q~0_combout $end
$var wire 1 y FF9|Q~q $end
$var wire 1 z Registers_Counter[10]~input_o $end
$var wire 1 { FF10|Q~0_combout $end
$var wire 1 | FF10|Q~4_combout $end
$var wire 1 } FF10|Q~q $end
$var wire 1 ~ Registers_Counter[11]~input_o $end
$var wire 1 !! FF11|Q~0_combout $end
$var wire 1 "! FF11|Q~q $end
$var wire 1 #! Registers_Counter[12]~input_o $end
$var wire 1 $! FF12|Q~0_combout $end
$var wire 1 %! FF12|Q~q $end
$var wire 1 &! Registers_Counter[13]~input_o $end
$var wire 1 '! FF13|Q~0_combout $end
$var wire 1 (! FF13|Q~q $end
$var wire 1 )! Registers_Counter[14]~input_o $end
$var wire 1 *! FF14|Q~0_combout $end
$var wire 1 +! FF14|Q~4_combout $end
$var wire 1 ,! FF14|Q~q $end
$var wire 1 -! Registers_Counter[15]~input_o $end
$var wire 1 .! FF15|Q~0_combout $end
$var wire 1 /! FF15|Q~q $end
$var wire 1 0! Registers_Counter[16]~input_o $end
$var wire 1 1! FF16|Q~0_combout $end
$var wire 1 2! FF16|Q~q $end
$var wire 1 3! Registers_Counter[17]~input_o $end
$var wire 1 4! FF17|Q~0_combout $end
$var wire 1 5! FF17|Q~q $end
$var wire 1 6! Registers_Counter[18]~input_o $end
$var wire 1 7! FF18|Q~0_combout $end
$var wire 1 8! FF18|Q~4_combout $end
$var wire 1 9! FF18|Q~q $end
$var wire 1 :! Registers_Counter[19]~input_o $end
$var wire 1 ;! FF19|Q~0_combout $end
$var wire 1 <! FF19|Q~q $end
$var wire 1 =! Registers_Counter[20]~input_o $end
$var wire 1 >! FF20|Q~0_combout $end
$var wire 1 ?! FF20|Q~q $end
$var wire 1 @! Registers_Counter[21]~input_o $end
$var wire 1 A! FF21|Q~0_combout $end
$var wire 1 B! FF21|Q~q $end
$var wire 1 C! Registers_Counter[22]~input_o $end
$var wire 1 D! FF22|Q~0_combout $end
$var wire 1 E! FF22|Q~q $end
$var wire 1 F! Registers_Counter[23]~input_o $end
$var wire 1 G! FF23|Q~0_combout $end
$var wire 1 H! FF23|Q~q $end
$var wire 1 I! Registers_Counter[24]~input_o $end
$var wire 1 J! FF24|Q~0_combout $end
$var wire 1 K! FF24|Q~q $end
$var wire 1 L! Registers_Counter[25]~input_o $end
$var wire 1 M! FF25|Q~0_combout $end
$var wire 1 N! FF25|Q~4_combout $end
$var wire 1 O! FF25|Q~q $end
$var wire 1 P! Registers_Counter[26]~input_o $end
$var wire 1 Q! FF26|Q~0_combout $end
$var wire 1 R! FF26|Q~4_combout $end
$var wire 1 S! FF26|Q~q $end
$var wire 1 T! Registers_Counter[27]~input_o $end
$var wire 1 U! FF27|Q~0_combout $end
$var wire 1 V! FF27|Q~q $end
$var wire 1 W! Registers_Counter[28]~input_o $end
$var wire 1 X! FF28|Q~0_combout $end
$var wire 1 Y! FF28|Q~q $end
$var wire 1 Z! Registers_Counter[29]~input_o $end
$var wire 1 [! FF29|Q~0_combout $end
$var wire 1 \! FF29|Q~4_combout $end
$var wire 1 ]! FF29|Q~q $end
$var wire 1 ^! Registers_Counter[30]~input_o $end
$var wire 1 _! FF30|Q~0_combout $end
$var wire 1 `! FF30|Q~4_combout $end
$var wire 1 a! FF30|Q~q $end
$var wire 1 b! Registers_Counter[31]~input_o $end
$var wire 1 c! FF31|Q~1_combout $end
$var wire 1 d! FF31|Q~q $end
$var wire 1 e! FF31|Q~0_combout $end
$var wire 1 f! Counter_Control~3_combout $end
$var wire 1 g! Counter_Control~1_combout $end
$var wire 1 h! Counter_Control~4_combout $end
$var wire 1 i! Counter_Control~2_combout $end
$var wire 1 j! Counter_Control~0_combout $end
$var wire 1 k! Counter_Control~5_combout $end
$var wire 1 l! auxE [31] $end
$var wire 1 m! auxE [30] $end
$var wire 1 n! auxE [29] $end
$var wire 1 o! auxE [28] $end
$var wire 1 p! auxE [27] $end
$var wire 1 q! auxE [26] $end
$var wire 1 r! auxE [25] $end
$var wire 1 s! auxE [24] $end
$var wire 1 t! auxE [23] $end
$var wire 1 u! auxE [22] $end
$var wire 1 v! auxE [21] $end
$var wire 1 w! auxE [20] $end
$var wire 1 x! auxE [19] $end
$var wire 1 y! auxE [18] $end
$var wire 1 z! auxE [17] $end
$var wire 1 {! auxE [16] $end
$var wire 1 |! auxE [15] $end
$var wire 1 }! auxE [14] $end
$var wire 1 ~! auxE [13] $end
$var wire 1 !" auxE [12] $end
$var wire 1 "" auxE [11] $end
$var wire 1 #" auxE [10] $end
$var wire 1 $" auxE [9] $end
$var wire 1 %" auxE [8] $end
$var wire 1 &" auxE [7] $end
$var wire 1 '" auxE [6] $end
$var wire 1 (" auxE [5] $end
$var wire 1 )" auxE [4] $end
$var wire 1 *" auxE [3] $end
$var wire 1 +" auxE [2] $end
$var wire 1 ," auxE [1] $end
$var wire 1 -" auxE [0] $end
$upscope $end
$upscope $end
$enddefinitions $end
#0
$dumpvars
b0 !
b100 "
b1010 #
0$
1%
1E
1D
1C
1B
1A
1@
1?
1>
1=
1<
1;
1:
19
18
17
16
15
14
13
12
11
10
1/
1.
1-
1,
1+
1*
1)
1(
1'
1&
0F
0G
1H
xI
1J
1K
1L
0M
0N
0O
0P
0Q
0R
0S
0T
0U
1V
0W
0X
1Y
1Z
0[
0\
1]
0^
1_
0`
0a
1b
0c
0d
0e
0f
0g
0h
0i
0j
0k
0l
0m
0n
0o
0p
0q
0r
0s
0t
0u
0v
0w
0x
0y
0z
1{
0|
0}
0~
0!!
0"!
0#!
0$!
0%!
0&!
0'!
0(!
0)!
1*!
0+!
0,!
0-!
0.!
0/!
00!
01!
02!
03!
04!
05!
06!
17!
08!
09!
0:!
0;!
0<!
0=!
0>!
0?!
0@!
0A!
0B!
0C!
0D!
0E!
0F!
0G!
0H!
0I!
0J!
0K!
0L!
1M!
0N!
0O!
0P!
1Q!
0R!
0S!
0T!
0U!
0V!
0W!
0X!
0Y!
0Z!
1[!
0\!
0]!
0^!
1_!
0`!
0a!
0b!
0c!
0d!
0e!
0f!
0g!
0h!
0i!
0j!
1k!
z-"
z,"
1+"
1*"
1)"
1("
z'"
1&"
0%"
z$"
z#"
1""
0!"
z~!
z}!
1|!
0{!
zz!
zy!
1x!
1w!
zv!
1u!
0t!
0s!
zr!
zq!
0p!
0o!
zn!
1m!
zl!
$end
#10000
1$
1N
1O
#20000
0$
0N
0O
#30000
1$
1N
1O
#40000
0$
0N
0O
#50000
1$
1N
1O
#60000
0$
0N
0O
#70000
1$
1N
1O
#80000
0%
b10 !
0$
0V
1S
0N
0O
0_!
0[!
0Q!
0M!
07!
0*!
0{
1x
1o
0*"
0_
0Z
1U
1c!
1X!
1J!
1A!
14!
1'!
0m!
1o!
1p!
1s!
1t!
0u!
0w!
0x!
1{!
0|!
1!"
0""
1%"
0&"
0("
0)"
0+"
1d
1[
1|
1+!
18!
1N!
1R!
1\!
1`!
1h
1l
1r
1u
1!!
1$!
1.!
11!
1;!
1>!
1D!
1G!
1U!
#90000
1$
1N
1O
1d!
1a!
1]!
1Y!
1V!
1S!
1O!
1K!
1H!
1E!
1B!
1?!
1<!
19!
15!
12!
1/!
1,!
1(!
1%!
1"!
1}
1y
1v
1s
1p
1m
1i
1e
1\
1W
0E
0D
0B
0A
0@
0?
0>
0=
0<
0;
0:
09
08
07
06
05
04
03
02
01
00
0/
0.
0-
0,
0+
0*
0)
0(
0'
0&
1g!
1i!
1f!
1h!
1e!
#100000
0$
0N
0O
#110000
b11 !
b1 !
1$
1T
0S
1N
1O
1_!
1[!
1Q!
1M!
17!
1*!
1{
0x
0r
0o
0l
0h
0d
1*"
1`
1_
1Z
0U
0c!
0X!
0U!
0J!
0G!
0D!
0A!
0>!
0;!
04!
01!
0.!
0'!
0$!
0!!
0u
1&"
1)"
1d
0[
0|
0+!
08!
0N!
0R!
0\!
0`!
0%"
1("
1h
1""
1r
1|!
1o
1l
0!"
0{
1x
1!!
1u
0{!
0*!
1x!
1|
1'!
1$!
1.!
0t!
1u!
1w!
07!
1;!
1+!
14!
11!
0s!
0p!
0M!
18!
1A!
1>!
1D!
1J!
1G!
1m!
0[!
0o!
0Q!
1N!
1X!
1U!
0_!
1R!
1\!
1c!
1`!
#120000
0$
0N
0O
#130000
1$
1N
1O
1a
0\
0W
1E
1D
0C
1+"
1U
0`
1`
#140000
0$
0N
0O
#150000
1$
1N
1O
1W
0E
0Z
0U
1[
#160000
0$
0N
0O
#170000
1$
1N
1O
1\
0W
1E
0D
1U
#180000
0$
0N
0O
#190000
1$
1N
1O
1W
0E
1j!
0)"
0*"
0+"
1Z
0U
0`
0&"
0d
1%"
0("
0h
0k!
0[
1F
0o
0l
1!"
1{
0x
0""
0r
0u
0|!
1{!
1*!
0!!
0|
0'!
0$!
0w!
17!
0x!
0+!
04!
01!
0.!
1t!
0u!
1s!
0;!
08!
0A!
0>!
1o!
1Q!
1p!
1M!
0D!
0J!
0G!
0m!
1[!
1_!
0N!
0X!
0U!
0R!
0`!
0\!
0c!
#200000
0$
0N
0O
#210000
1$
1N
1O
0d!
0a!
0]!
0Y!
0V!
0S!
0O!
0K!
0H!
0E!
0B!
0?!
0<!
09!
05!
02!
0/!
0,!
0(!
0%!
0"!
0}
0y
0v
0s
0p
0m
0i
0e
0a
0\
0W
1E
1D
1C
1B
1A
1@
1?
1>
1=
1<
1;
1:
19
18
17
16
15
14
13
12
11
10
1/
1.
1-
1,
1+
1*
1)
1(
1'
1&
0j!
1)"
1*"
1+"
1U
1`
1&"
1d
0%"
1("
1h
1l
0g!
1""
1r
0!"
1|!
0i!
0{!
1x!
1w!
0f!
0t!
1u!
0s!
0p!
0h!
0o!
1m!
0e!
1u
1!!
1$!
1.!
11!
1;!
1>!
1D!
1G!
1U!
1k!
0l
0r
0`
0d
0h
0U!
0D!
0G!
0>!
0;!
01!
0.!
0$!
0!!
0u
0F
#220000
0$
0N
0O
#230000
1$
1N
1O
1W
0E
0Z
0U
1[
#240000
0$
0N
0O
#250000
1$
1N
1O
1\
0W
1E
0D
1U
#260000
0$
0N
0O
#270000
1$
1N
1O
1W
0E
0+"
1Z
0U
1`
0[
#280000
0$
0N
0O
#290000
1$
1N
1O
1a
0\
0W
1E
1D
0C
1+"
1U
0`
1`
#300000
0$
0N
0O
#310000
1$
1N
1O
1W
0E
0Z
0U
1[
#320000
0$
0N
0O
#330000
1$
1N
1O
1\
0W
1E
0D
1U
#340000
0$
0N
0O
#350000
1$
1N
1O
1W
0E
0*"
0+"
1Z
0U
0`
1d
0[
#360000
0$
0N
0O
#370000
1$
1N
1O
1e
0a
0\
0W
1E
1D
1C
0B
1*"
1+"
1U
1`
0d
0`
1d
#380000
0$
0N
0O
#390000
1$
1N
1O
1W
0E
0Z
0U
1[
#400000
0$
0N
0O
#410000
1$
1N
1O
1\
0W
1E
0D
1U
#420000
0$
0N
0O
#430000
1$
1N
1O
1W
0E
0+"
1Z
0U
1`
0[
#440000
0$
0N
0O
#450000
1$
1N
1O
1a
0\
0W
1E
1D
0C
1+"
1U
0`
1`
#460000
0$
0N
0O
#470000
1$
1N
1O
1W
0E
0Z
0U
1[
#480000
0$
0N
0O
#490000
1$
1N
1O
1\
0W
1E
0D
1U
#500000
0$
0N
0O
#510000
b101 !
b100 !
1$
0T
1Q
1N
1O
0_!
0[!
0Q!
0M!
07!
0*!
0{
1x
1o
0*"
0_
1Z
1c!
1X!
1J!
1A!
14!
1'!
0m!
1o!
1p!
1s!
1t!
0u!
0w!
0x!
1{!
0|!
1!"
0""
1%"
0&"
0("
0)"
0+"
0d
0[
1|
1+!
18!
1N!
1R!
1\!
1`!
1h
1l
1r
1u
1!!
1$!
1.!
11!
1;!
1>!
1D!
1G!
1U!
1W
0E
#520000
0$
0N
0O
#530000
1$
1N
1O
1d!
1a!
1]!
1Y!
1V!
1S!
1O!
1K!
1H!
1E!
1B!
1?!
1<!
19!
15!
12!
1/!
1,!
1(!
1%!
1"!
1}
1y
1v
1s
1p
1m
1i
0e
0\
1D
1B
0A
0@
0?
0>
0=
0<
0;
0:
09
08
07
06
05
04
03
02
01
00
0/
0.
0-
0,
0+
0*
0)
0(
0'
0&
1g!
1i!
1f!
1h!
1e!
#540000
b0 !
b1 !
0$
1T
0Q
0N
0O
1_!
1[!
1Q!
1M!
17!
1*!
1{
0x
0r
0o
0l
0h
1d
1*"
0`
1_
0Z
0U
0c!
0X!
0U!
0J!
0G!
0D!
0A!
0>!
0;!
04!
01!
0.!
0'!
0$!
0!!
0u
1&"
1)"
1+"
0d
1[
0|
0+!
08!
0N!
0R!
0\!
0`!
1`
0%"
1("
1h
1""
1r
1|!
1o
1l
0!"
0{
1x
1!!
1u
0{!
0*!
1x!
1|
1'!
1$!
1.!
0t!
1u!
1w!
07!
1;!
1+!
14!
11!
0s!
0p!
0M!
18!
1A!
1>!
1D!
1J!
1G!
1m!
0[!
0o!
0Q!
1N!
1X!
1U!
0_!
1R!
1\!
1c!
1`!
#550000
1$
1N
1O
1\
0W
1E
0D
1U
#560000
0$
0N
0O
#570000
1$
1N
1O
1W
0E
0*"
0+"
1Z
0U
0`
1d
0[
#580000
0$
0N
0O
#590000
1$
1N
1O
1e
0a
0\
0W
1E
1D
1C
0B
1*"
1+"
1U
1`
0&"
0d
0""
0r
0`
1&"
1d
1""
1r
0|!
0!!
0x!
1|!
0.!
1!!
1x!
1t!
0u!
1.!
0;!
1p!
1M!
0t!
1u!
0D!
0J!
0G!
1;!
0p!
0M!
0m!
1[!
1D!
1J!
1G!
0N!
0X!
0U!
1m!
0[!
0\!
0c!
1N!
1X!
1U!
1\!
1c!
#600000
0$
0N
0O
#610000
1$
1N
1O
1W
0E
0Z
0U
1[
#620000
0$
0N
0O
#630000
1$
1N
1O
1\
0W
1E
0D
1U
#640000
0$
0N
0O
#650000
1$
1N
1O
1W
0E
0+"
1Z
0U
1`
0[
#660000
0$
0N
0O
#670000
1$
1N
1O
1a
0\
0W
1E
1D
0C
1+"
1U
0`
1`
#680000
0$
0N
0O
#690000
1$
1N
1O
1W
0E
0Z
0U
1[
#700000
0$
0N
0O
#710000
1$
1N
1O
1\
0W
1E
0D
1U
#720000
0$
0N
0O
#730000
1$
1N
1O
1W
0E
1j!
0)"
0*"
0+"
1Z
0U
0`
0&"
0d
1%"
0("
0h
0k!
0[
1F
0o
0l
1!"
1{
0x
0""
0r
0u
0|!
1{!
1*!
0!!
0|
0'!
0$!
0w!
17!
0x!
0+!
04!
01!
0.!
1t!
0u!
1s!
0;!
08!
0A!
0>!
1o!
1Q!
1p!
1M!
0D!
0J!
0G!
0m!
1[!
1_!
0N!
0X!
0U!
0R!
0`!
0\!
0c!
#740000
0$
0N
0O
#750000
1$
1N
1O
0d!
0a!
0]!
0Y!
0V!
0S!
0O!
0K!
0H!
0E!
0B!
0?!
0<!
09!
05!
02!
0/!
0,!
0(!
0%!
0"!
0}
0y
0v
0s
0p
0m
0i
0e
0a
0\
0W
1E
1D
1C
1B
1A
1@
1?
1>
1=
1<
1;
1:
19
18
17
16
15
14
13
12
11
10
1/
1.
1-
1,
1+
1*
1)
1(
1'
1&
0j!
1)"
1*"
1+"
1U
1`
1&"
1d
0%"
1("
1h
1l
0g!
1""
1r
0!"
1|!
0i!
0{!
1x!
1w!
0f!
0t!
1u!
0s!
0p!
0h!
0o!
1m!
0e!
1u
1!!
1$!
1.!
11!
1;!
1>!
1D!
1G!
1U!
1k!
0l
0r
0`
0d
0h
0U!
0D!
0G!
0>!
0;!
01!
0.!
0$!
0!!
0u
0F
#760000
0$
0N
0O
#770000
1$
1N
1O
1W
0E
0Z
0U
1[
#780000
0$
0N
0O
#790000
1$
1N
1O
1\
0W
1E
0D
1U
#800000
0$
0N
0O
#810000
1$
1N
1O
1W
0E
0+"
1Z
0U
1`
0[
#820000
0$
0N
0O
#830000
1$
1N
1O
1a
0\
0W
1E
1D
0C
1+"
1U
0`
1`
#840000
0$
0N
0O
#850000
1$
1N
1O
1W
0E
0Z
0U
1[
#860000
0$
0N
0O
#870000
1$
1N
1O
1\
0W
1E
0D
1U
#880000
0$
0N
0O
#890000
1$
1N
1O
1W
0E
0*"
0+"
1Z
0U
0`
1d
0[
#900000
0$
0N
0O
#910000
1$
1N
1O
1e
0a
0\
0W
1E
1D
1C
0B
1*"
1+"
1U
1`
0d
0`
1d
#920000
0$
0N
0O
#930000
1$
1N
1O
1W
0E
0Z
0U
1[
#940000
0$
0N
0O
#950000
1$
1N
1O
1\
0W
1E
0D
1U
#960000
0$
0N
0O
#970000
1$
1N
1O
1W
0E
0+"
1Z
0U
1`
0[
#980000
0$
0N
0O
#990000
1$
1N
1O
1a
0\
0W
1E
1D
0C
1+"
1U
0`
1`
